<?xml version="1.0" encoding="UTF-8" standalone="no"?>
<!-- Created with Inkscape (http://www.inkscape.org/) -->

<svg
   xmlns:osb="http://www.openswatchbook.org/uri/2009/osb"
   xmlns:dc="http://purl.org/dc/elements/1.1/"
   xmlns:cc="http://creativecommons.org/ns#"
   xmlns:rdf="http://www.w3.org/1999/02/22-rdf-syntax-ns#"
   xmlns:svg="http://www.w3.org/2000/svg"
   xmlns="http://www.w3.org/2000/svg"
   xmlns:xlink="http://www.w3.org/1999/xlink"
   xmlns:sodipodi="http://sodipodi.sourceforge.net/DTD/sodipodi-0.dtd"
   xmlns:inkscape="http://www.inkscape.org/namespaces/inkscape"
   width="744.09448819"
   height="1052.3622047"
   id="svg2"
   version="1.1"
   inkscape:version="0.48.4 r9939"
   sodipodi:docname="addbutton.svg"
   inkscape:export-filename="C:\Users\Flor.Lappy\Desktop\testMainList\app\src\main\res\addbuttontest.png"
   inkscape:export-xdpi="90"
   inkscape:export-ydpi="90">
  <defs
     id="defs4">
    <linearGradient
       id="linearGradient4393"
       osb:paint="solid">
      <stop
         style="stop-color:#bdbdbd;stop-opacity:1;"
         offset="0"
         id="stop4395" />
    </linearGradient>
    <linearGradient
       id="linearGradient4229"
       osb:paint="solid">
      <stop
         style="stop-color:#000000;stop-opacity:1;"
         offset="0"
         id="stop4231" />
    </linearGradient>
    <linearGradient
       id="linearGradient4217"
       osb:paint="solid">
      <stop
         style="stop-color:#bbbbbb;stop-opacity:1;"
         offset="0"
         id="stop4219" />
    </linearGradient>
    <linearGradient
       id="linearGradient4211"
       osb:paint="solid">
      <stop
         style="stop-color:#000000;stop-opacity:1;"
         offset="0"
         id="stop4213" />
    </linearGradient>
    <linearGradient
       id="linearGradient3777"
       osb:paint="solid">
      <stop
         style="stop-color:#fefefe;stop-opacity:1;"
         offset="0"
         id="stop3779" />
    </linearGradient>
    <linearGradient
       id="linearGradient3763"
       osb:paint="solid">
      <stop
         style="stop-color:#c7c7c7;stop-opacity:1;"
         offset="0"
         id="stop3765" />
    </linearGradient>
    <linearGradient
       id="linearGradient3755"
       osb:paint="solid">
      <stop
         style="stop-color:#bdbdbd;stop-opacity:1;"
         offset="0"
         id="stop3757" />
    </linearGradient>
    <linearGradient
       inkscape:collect="always"
       xlink:href="#linearGradient3755"
       id="linearGradient3759"
       x1="128.57143"
       y1="333.79076"
       x2="628.57143"
       y2="333.79076"
       gradientUnits="userSpaceOnUse"
       gradientTransform="matrix(0.99920252,0,0,1.1667785,0.30188956,-51.151985)" />
    <linearGradient
       inkscape:collect="always"
       xlink:href="#linearGradient3763"
       id="linearGradient3767"
       x1="294.28297"
       y1="317.32418"
       x2="460.00006"
       y2="317.32418"
       gradientUnits="userSpaceOnUse" />
    <linearGradient
       inkscape:collect="always"
       xlink:href="#linearGradient3755"
       id="linearGradient3937"
       gradientUnits="userSpaceOnUse"
       x1="128.57143"
       y1="333.79076"
       x2="628.57143"
       y2="333.79076" />
    <filter
       inkscape:collect="always"
       id="filter3979"
       x="-0.23245562"
       width="1.4649112"
       y="-0.2930962"
       height="1.5861924">
      <feGaussianBlur
         inkscape:collect="always"
         stdDeviation="16.050507"
         id="feGaussianBlur3981" />
    </filter>
    <filter
       inkscape:collect="always"
       id="filter3991"
       x="-0.10492194"
       width="1.2098439"
       y="-0.27404984"
       height="1.5480997">
      <feGaussianBlur
         inkscape:collect="always"
         stdDeviation="21.858737"
         id="feGaussianBlur3993" />
    </filter>
    <filter
       inkscape:collect="always"
       id="filter4203"
       x="-0.22258202"
       width="1.445164"
       y="-0.19607436"
       height="1.3921487">
      <feGaussianBlur
         inkscape:collect="always"
         stdDeviation="22.175075"
         id="feGaussianBlur4205" />
    </filter>
    <linearGradient
       inkscape:collect="always"
       xlink:href="#linearGradient4217"
       id="linearGradient4221"
       x1="157.5838"
       y1="670.52454"
       x2="184.57359"
       y2="566.86145"
       gradientUnits="userSpaceOnUse"
       gradientTransform="matrix(1.0885138,0,0,1.1671185,-661.64113,-388.79227)" />
    <linearGradient
       inkscape:collect="always"
       xlink:href="#linearGradient4217"
       id="linearGradient4225"
       gradientUnits="userSpaceOnUse"
       gradientTransform="matrix(1.0885138,0,0,1.1671185,606.42547,-825.7608)"
       x1="157.5838"
       y1="670.52454"
       x2="184.57359"
       y2="566.86145" />
    <filter
       inkscape:collect="always"
       id="filter4301"
       x="-0.16675183"
       width="1.3335037"
       y="-0.26941478"
       height="1.5388296">
      <feGaussianBlur
         inkscape:collect="always"
         stdDeviation="16.250716"
         id="feGaussianBlur4303" />
    </filter>
    <filter
       inkscape:collect="always"
       id="filter4311"
       x="-0.14590783"
       width="1.2918157"
       y="-0.23573791"
       height="1.4714758">
      <feGaussianBlur
         inkscape:collect="always"
         stdDeviation="14.219375"
         id="feGaussianBlur4313" />
    </filter>
    <linearGradient
       inkscape:collect="always"
       xlink:href="#linearGradient4217"
       id="linearGradient4315"
       gradientUnits="userSpaceOnUse"
       gradientTransform="matrix(1.0885138,0,0,1.1671185,-661.64113,-388.79227)"
       x1="157.5838"
       y1="670.52454"
       x2="184.57359"
       y2="566.86145" />
    <linearGradient
       inkscape:collect="always"
       xlink:href="#linearGradient3763-2"
       id="linearGradient3767-7"
       x1="294.28296"
       y1="317.32419"
       x2="460.00006"
       y2="317.32419"
       gradientUnits="userSpaceOnUse" />
    <linearGradient
       id="linearGradient3763-2"
       osb:paint="solid">
      <stop
         style="stop-color:#c7c7c7;stop-opacity:1;"
         offset="0"
         id="stop3765-0" />
    </linearGradient>
    <filter
       color-interpolation-filters="sRGB"
       inkscape:collect="always"
       id="filter3979-9"
       x="-0.23245563"
       width="1.4649112"
       y="-0.29309621"
       height="1.5861924">
      <feGaussianBlur
         inkscape:collect="always"
         stdDeviation="16.050507"
         id="feGaussianBlur3981-5" />
    </filter>
    <linearGradient
       y2="317.32419"
       x2="460.00006"
       y1="317.32419"
       x1="294.28296"
       gradientUnits="userSpaceOnUse"
       id="linearGradient4333"
       xlink:href="#linearGradient3763-2"
       inkscape:collect="always" />
    <linearGradient
       inkscape:collect="always"
       xlink:href="#linearGradient3763-25"
       id="linearGradient3767-3"
       x1="294.28296"
       y1="317.32419"
       x2="460.00006"
       y2="317.32419"
       gradientUnits="userSpaceOnUse" />
    <linearGradient
       id="linearGradient3763-25"
       osb:paint="solid">
      <stop
         style="stop-color:#c7c7c7;stop-opacity:1;"
         offset="0"
         id="stop3765-6" />
    </linearGradient>
    <linearGradient
       y2="317.32419"
       x2="460.00006"
       y1="317.32419"
       x1="294.28296"
       gradientUnits="userSpaceOnUse"
       id="linearGradient4370"
       xlink:href="#linearGradient3763-25"
       inkscape:collect="always" />
    <linearGradient
       inkscape:collect="always"
       xlink:href="#linearGradient4393-5"
       id="linearGradient4397-1"
       x1="416.18286"
       y1="667.49408"
       x2="466.69049"
       y2="667.49408"
       gradientUnits="userSpaceOnUse" />
    <linearGradient
       id="linearGradient4393-5"
       osb:paint="solid">
      <stop
         style="stop-color:#bdbdbd;stop-opacity:1;"
         offset="0"
         id="stop4395-7" />
    </linearGradient>
    <linearGradient
       inkscape:collect="always"
       xlink:href="#linearGradient4393-9"
       id="linearGradient4397-7"
       x1="416.18286"
       y1="667.49408"
       x2="468.71078"
       y2="641.2301"
       gradientUnits="userSpaceOnUse"
       gradientTransform="translate(2.0203051,4.0406102)" />
    <linearGradient
       id="linearGradient4393-9"
       osb:paint="solid">
      <stop
         style="stop-color:#bdbdbd;stop-opacity:1;"
         offset="0"
         id="stop4395-2" />
    </linearGradient>
    <linearGradient
       inkscape:collect="always"
       xlink:href="#linearGradient4393-7"
       id="linearGradient4397-72"
       x1="416.18286"
       y1="667.49408"
       x2="468.71078"
       y2="641.2301"
       gradientUnits="userSpaceOnUse"
       gradientTransform="translate(2.0203051,4.0406102)" />
    <linearGradient
       id="linearGradient4393-7"
       osb:paint="solid">
      <stop
         style="stop-color:#bdbdbd;stop-opacity:1;"
         offset="0"
         id="stop4395-9" />
    </linearGradient>
    <linearGradient
       inkscape:collect="always"
       xlink:href="#linearGradient4393-8"
       id="linearGradient4397-3"
       x1="416.18286"
       y1="667.49408"
       x2="468.71078"
       y2="641.2301"
       gradientUnits="userSpaceOnUse"
       gradientTransform="translate(2.0203051,4.0406102)" />
    <linearGradient
       id="linearGradient4393-8"
       osb:paint="solid">
      <stop
         style="stop-color:#bdbdbd;stop-opacity:1;"
         offset="0"
         id="stop4395-1" />
    </linearGradient>
    <linearGradient
       inkscape:collect="always"
       xlink:href="#linearGradient4393-51"
       id="linearGradient4397-76"
       x1="416.18286"
       y1="667.49408"
       x2="468.71078"
       y2="641.2301"
       gradientUnits="userSpaceOnUse"
       gradientTransform="translate(2.0203051,4.0406102)" />
    <linearGradient
       id="linearGradient4393-51"
       osb:paint="solid">
      <stop
         style="stop-color:#bdbdbd;stop-opacity:1;"
         offset="0"
         id="stop4395-29" />
    </linearGradient>
    <filter
       inkscape:collect="always"
       id="filter4600"
       x="-0.25508516"
       width="1.5101703"
       y="-0.58669302"
       height="2.173386">
      <feGaussianBlur
         inkscape:collect="always"
         stdDeviation="4.9387687"
         id="feGaussianBlur4602" />
    </filter>
    <filter
       inkscape:collect="always"
       id="filter4604"
       x="-0.25508516"
       width="1.5101703"
       y="-0.58669302"
       height="2.173386">
      <feGaussianBlur
         inkscape:collect="always"
         stdDeviation="4.9387687"
         id="feGaussianBlur4606" />
    </filter>
    <filter
       inkscape:collect="always"
       id="filter4608"
       x="-0.25508516"
       width="1.5101703"
       y="-0.58669302"
       height="2.173386">
      <feGaussianBlur
         inkscape:collect="always"
         stdDeviation="4.9387687"
         id="feGaussianBlur4610" />
    </filter>
    <filter
       inkscape:collect="always"
       id="filter4612"
       x="-0.25508516"
       width="1.5101703"
       y="-0.58669302"
       height="2.173386">
      <feGaussianBlur
         inkscape:collect="always"
         stdDeviation="4.9387687"
         id="feGaussianBlur4614" />
    </filter>
    <filter
       inkscape:collect="always"
       id="filter4616"
       x="-0.25508516"
       width="1.5101703"
       y="-0.58669302"
       height="2.173386">
      <feGaussianBlur
         inkscape:collect="always"
         stdDeviation="4.9387687"
         id="feGaussianBlur4618" />
    </filter>
    <filter
       inkscape:collect="always"
       id="filter4704"
       x="-0.20833275"
       width="1.4166655"
       y="-0.2529755"
       height="1.505951">
      <feGaussianBlur
         inkscape:collect="always"
         stdDeviation="11.925379"
         id="feGaussianBlur4706" />
    </filter>
    <filter
       inkscape:collect="always"
       id="filter5181"
       x="-0.15816933"
       width="1.3163387"
       y="-0.1767775"
       height="1.353555">
      <feGaussianBlur
         inkscape:collect="always"
         stdDeviation="7.5893202"
         id="feGaussianBlur5183" />
    </filter>
  </defs>
  <sodipodi:namedview
     id="base"
     pagecolor="#ffffff"
     bordercolor="#666666"
     borderopacity="1.0"
     inkscape:pageopacity="0.0"
     inkscape:pageshadow="2"
     inkscape:zoom="0.49497475"
     inkscape:cx="-310.56632"
     inkscape:cy="485.36107"
     inkscape:document-units="px"
     inkscape:current-layer="layer1"
     showgrid="false"
     inkscape:window-width="1366"
     inkscape:window-height="706"
     inkscape:window-x="-8"
     inkscape:window-y="-8"
     inkscape:window-maximized="1" />
  <metadata
     id="metadata7">
    <rdf:RDF>
      <cc:Work
         rdf:about="">
        <dc:format>image/svg+xml</dc:format>
        <dc:type
           rdf:resource="http://purl.org/dc/dcmitype/StillImage" />
        <dc:title></dc:title>
      </cc:Work>
    </rdf:RDF>
  </metadata>
  <g
     inkscape:label="Layer 1"
     inkscape:groupmode="layer"
     id="layer1">
    <path
       sodipodi:type="arc"
       style="fill:#9c9c9c;fill-opacity:1;fill-rule:nonzero;stroke:none;filter:url(#filter5181)"
       id="path4621"
       sodipodi:cx="425.27423"
       sodipodi:cy="748.30627"
       sodipodi:rx="57.578697"
       sodipodi:ry="51.51778"
       d="m 482.85293,748.30627 a 57.578697,51.51778 0 1 1 -115.1574,0 57.578697,51.51778 0 1 1 115.1574,0 z"
       transform="matrix(1.1332776,0,0,1.1738342,-14.253164,-182.60914)"
       inkscape:export-filename="C:\Users\Flor.Lappy\Desktop\testMainList\app\src\main\res\drawable\selectbuttonhigh.png"
       inkscape:export-xdpi="90"
       inkscape:export-ydpi="90" />
    <rect
       style="fill:#ffffff;fill-opacity:0;fill-rule:nonzero;stroke:url(#linearGradient3759);stroke-width:5.39872169;stroke-miterlimit:4;stroke-dasharray:none"
       id="rect2985"
       width="499.60129"
       height="223.35474"
       x="128.77078"
       y="223.29686"
       ry="43.337486"
       inkscape:export-filename="C:\Users\Flor.Lappy\Desktop\testMainList\app\src\main\res\drawable\addbuttyell.png"
       inkscape:export-xdpi="90"
       inkscape:export-ydpi="90" />
    <path
       sodipodi:type="arc"
       style="fill:#ffffff;fill-opacity:0;fill-rule:nonzero;stroke:url(#linearGradient3767);stroke-width:5;stroke-miterlimit:4;stroke-dasharray:none"
       id="path3761"
       sodipodi:cx="377.14285"
       sodipodi:cy="329.50504"
       sodipodi:rx="82.85714"
       sodipodi:ry="65.714287"
       d="m 459.99999,329.50504 a 82.85714,65.714287 0 1 1 -165.71428,0 82.85714,65.714287 0 1 1 165.71428,0 z"
       transform="matrix(1.0475922,0,0,1.2339205,-19.377613,-75.649426)"
       inkscape:export-filename="C:\Users\Flor.Lappy\Desktop\testMainList\app\src\main\res\drawable\addbuttyell.png"
       inkscape:export-xdpi="90"
       inkscape:export-ydpi="90" />
    <g
       id="g3048"
       style="fill:#ffaa00;fill-opacity:1"
       transform="translate(838.42661,6.0609075)">
      <rect
         ry="10"
         y="52.362183"
         x="-1302.8572"
         height="271.42856"
         width="20"
         id="rect3022"
         style="fill:#ffaa00;fill-opacity:1;fill-rule:nonzero;stroke:none" />
      <rect
         transform="matrix(0,1,-1,0,0,0)"
         ry="8.8090839"
         y="1169.8564"
         x="168.07648"
         height="239.10368"
         width="20"
         id="rect3022-1"
         style="fill:#ffaa00;fill-opacity:1;fill-rule:nonzero;stroke:none" />
    </g>
    <path
       style="fill:#ff6600;fill-opacity:1;fill-rule:nonzero;stroke:none"
       d="m -626.5075,644.57097 c -1.78554,-1.78555 -2.42437,-19.61941 -2.42437,-67.68022 l 0,-65.25586 -51.44665,0 c -49.3791,0 -51.5337,-0.16239 -53.6092,-4.04061 -2.4983,-4.66812 0,-10.91481 5.1599,-12.89429 1.7885,-0.68631 24.9967,-1.24784 51.5739,-1.24784 l 48.32205,0 0,-54.40393 c 0,-46.76438 0.44581,-54.84974 3.17477,-57.5787 4.16238,-4.16238 7.56424,-4.01077 11.6644,0.51985 2.93531,3.24349 3.34358,10.27414 3.34358,57.5787 l 0,53.88408 52.0784,0 c 43.86522,0 52.78652,0.49599 56.56853,3.14502 4.94016,3.46021 5.82376,8.85538 2.06579,12.61336 -1.765,1.765 -17.15015,2.42436 -56.56855,2.42436 l -54.14417,0 0,65.25586 c 0,68.59303 -0.19603,70.10459 -9.09138,70.10459 -2.33345,0 -5.3336,-1.09097 -6.667,-2.42437 z"
       id="path3843"
       inkscape:connector-curvature="0" />
    <path
       style="fill:#ff6600;fill-opacity:1;fill-rule:nonzero;stroke:none"
       d="m -1226.5381,739.52531 c -1.7856,-1.78555 -2.4244,-19.61941 -2.4244,-67.68022 l 0,-65.25586 -51.4466,0 c -49.3791,0 -51.5337,-0.16239 -53.6092,-4.04061 -2.4983,-4.66812 0,-10.91481 5.1599,-12.89429 1.7885,-0.68631 24.9967,-1.24784 51.5739,-1.24784 l 48.322,0 0,-54.40393 c 0,-46.76438 0.4458,-54.84974 3.1748,-57.5787 4.1624,-4.16238 7.5642,-4.01077 11.6644,0.51985 2.9353,3.24349 3.3436,10.27414 3.3436,57.5787 l 0,53.88408 52.0784,0 c 43.8652,0 52.7865,0.49599 56.5685,3.14502 4.9402,3.46021 5.8238,8.85538 2.0658,12.61336 -1.765,1.765 -17.1502,2.42436 -56.5686,2.42436 l -54.1441,0 0,65.25586 c 0,68.59303 -0.1961,70.10459 -9.0914,70.10459 -2.3335,0 -5.3336,-1.09097 -6.667,-2.42437 z"
       id="path3845"
       inkscape:connector-curvature="0" />
    <path
       style="fill:#ff6600;fill-opacity:1;fill-rule:nonzero;stroke:none"
       d="m -757.82734,567.79938 c -1.78554,-1.78555 -2.42437,-19.61941 -2.42437,-67.68022 l 0,-65.25586 -51.44665,0 c -49.3791,0 -51.5337,-0.16239 -53.6092,-4.04061 -2.4983,-4.66812 0,-10.91481 5.1599,-12.89429 1.7885,-0.68631 24.9967,-1.24784 51.5739,-1.24784 l 48.32205,0 0,-54.40393 c 0,-46.76438 0.44581,-54.84974 3.17477,-57.5787 4.16238,-4.16238 7.56424,-4.01077 11.6644,0.51985 2.93531,3.24349 3.34358,10.27414 3.34358,57.5787 l 0,53.88408 52.0784,0 c 43.86522,0 52.78652,0.49599 56.56853,3.14502 4.94016,3.46021 5.82376,8.85538 2.06579,12.61336 -1.765,1.765 -17.15015,2.42436 -56.56855,2.42436 l -54.14417,0 0,65.25586 c 0,68.59303 -0.19603,70.10459 -9.09138,70.10459 -2.33345,0 -5.3336,-1.09097 -6.667,-2.42437 z"
       id="path3847"
       inkscape:connector-curvature="0" />
    <path
       style="fill:#ff6600;fill-opacity:1;fill-rule:nonzero;stroke:none"
       d="m -1028.5482,402.13436 c -1.7856,-1.78555 -2.4244,-19.61941 -2.4244,-67.68022 l 0,-65.25586 -51.4466,0 c -49.3791,0 -51.5337,-0.16239 -53.6092,-4.04061 -2.4983,-4.66812 0,-10.91481 5.1599,-12.89429 1.7885,-0.68631 24.9967,-1.24784 51.5739,-1.24784 l 48.322,0 0,-54.40393 c 0,-46.76438 0.4458,-54.84974 3.1748,-57.5787 4.1624,-4.16238 7.5642,-4.01077 11.6644,0.51985 2.9353,3.24349 3.3436,10.27414 3.3436,57.5787 l 0,53.88408 52.07836,0 c 43.86522,0 52.78652,0.49599 56.56853,3.14502 4.94016,3.46021 5.82376,8.85538 2.06579,12.61336 -1.765,1.765 -17.15015,2.42436 -56.56855,2.42436 l -54.14413,0 0,65.25586 c 0,68.59303 -0.1961,70.10459 -9.0914,70.10459 -2.3335,0 -5.3336,-1.09097 -6.667,-2.42437 z"
       id="path3849"
       inkscape:connector-curvature="0" />
    <path
       style="fill:#ff6600;fill-opacity:1;fill-rule:nonzero;stroke:none"
       d="m -812.37557,424.35772 c -1.78554,-1.78555 -2.42437,-19.61941 -2.42437,-67.68022 l 0,-65.25586 -51.44665,0 c -49.3791,0 -51.5337,-0.16239 -53.6092,-4.04061 -2.4983,-4.66812 0,-10.91481 5.1599,-12.89429 1.7885,-0.68631 24.9967,-1.24784 51.5739,-1.24784 l 48.32205,0 0,-54.40393 c 0,-46.76438 0.44581,-54.84974 3.17477,-57.5787 4.16238,-4.16238 7.56424,-4.01077 11.6644,0.51985 2.93531,3.24349 3.34358,10.27414 3.34358,57.5787 l 0,53.88408 52.0784,0 c 43.86522,0 52.78652,0.49599 56.56853,3.14502 4.94016,3.46021 5.82376,8.85538 2.06579,12.61336 -1.765,1.765 -17.15015,2.42436 -56.56855,2.42436 l -54.14417,0 0,65.25586 c 0,68.59303 -0.19603,70.10459 -9.09138,70.10459 -2.33345,0 -5.3336,-1.09097 -6.667,-2.42437 z"
       id="path3851"
       inkscape:connector-curvature="0" />
    <path
       style="fill:#ff6600;fill-opacity:1;fill-rule:nonzero;stroke:none"
       d="m -1167.9493,523.35267 c -1.7855,-1.78555 -2.4243,-19.61941 -2.4243,-67.68022 l 0,-65.25586 -51.4467,0 c -49.3791,0 -51.5337,-0.16239 -53.6092,-4.04061 -2.4983,-4.66812 0,-10.91481 5.1599,-12.89429 1.7885,-0.68631 24.9967,-1.24784 51.5739,-1.24784 l 48.3221,0 0,-54.40393 c 0,-46.76438 0.4458,-54.84974 3.1747,-57.5787 4.1624,-4.16238 7.5643,-4.01077 11.6644,0.51985 2.9353,3.24349 3.3436,10.27414 3.3436,57.5787 l 0,53.88408 52.0784,0 c 43.8652,0 52.7865,0.49599 56.5685,3.14502 4.9402,3.46021 5.8238,8.85538 2.0658,12.61336 -1.765,1.765 -17.1501,2.42436 -56.5685,2.42436 l -54.1442,0 0,65.25586 c 0,68.59303 -0.196,70.10459 -9.0914,70.10459 -2.3334,0 -5.3336,-1.09097 -6.667,-2.42437 z"
       id="path3853"
       inkscape:connector-curvature="0" />
    <path
       style="fill:#ff6600;fill-opacity:1;fill-rule:nonzero;stroke:none"
       d="m -1180.0711,790.03294 c -1.7855,-1.78555 -2.4244,-19.61941 -2.4244,-67.68022 l 0,-65.25586 -51.4466,0 c -49.3791,0 -51.5337,-0.16239 -53.6092,-4.04061 -2.4983,-4.66812 0,-10.91481 5.1599,-12.89429 1.7885,-0.68631 24.9967,-1.24784 51.5739,-1.24784 l 48.322,0 0,-54.40393 c 0,-46.76438 0.4458,-54.84974 3.1748,-57.5787 4.1624,-4.16238 7.5642,-4.01077 11.6644,0.51985 2.9353,3.24349 3.3436,10.27414 3.3436,57.5787 l 0,53.88408 52.0784,0 c 43.8652,0 52.7865,0.49599 56.5685,3.14502 4.9402,3.46021 5.8238,8.85538 2.0658,12.61336 -1.765,1.765 -17.1501,2.42436 -56.5685,2.42436 l -54.1442,0 0,65.25586 c 0,68.59303 -0.196,70.10459 -9.0914,70.10459 -2.3334,0 -5.3336,-1.09097 -6.667,-2.42437 z"
       id="path3855"
       inkscape:connector-curvature="0" />
    <path
       style="fill:#ff6600;fill-opacity:1;fill-rule:nonzero;stroke:none"
       d="m -1174.0102,270.81453 c -1.7855,-1.78555 -2.4244,-19.61941 -2.4244,-67.68022 l 0,-65.25586 -51.4466,0 c -49.9354,0 -51.5124,-0.12268 -53.6817,-4.17608 -1.7386,-3.24852 -1.5196,-5.26785 0.9856,-9.09138 l 3.2206,-4.91528 50.4611,0 50.461,0 0,-54.40393 c 0,-46.76438 0.4459,-54.84974 3.1748,-57.5786996 4.1624,-4.16238 7.5643,-4.01077 11.6644,0.51985 2.9353,3.2434896 3.3436,10.2741396 3.3436,57.5786996 l 0,53.88408 52.0784,0 c 43.8652,0 52.7865,0.49599 56.5685,3.14502 4.9402,3.46021 5.8238,8.85538 2.0658,12.61336 -1.765,1.765 -17.1501,2.42436 -56.5685,2.42436 l -54.1442,0 0,65.25586 c 0,68.59303 -0.196,70.10459 -9.0914,70.10459 -2.3334,0 -5.3336,-1.09097 -6.667,-2.42437 z"
       id="path3857"
       inkscape:connector-curvature="0" />
    <path
       style="fill:#ff6600;fill-opacity:1;fill-rule:nonzero;stroke:none"
       d="m -664.8933,272.83484 c -1.78554,-1.78555 -2.42437,-19.61941 -2.42437,-67.68022 l 0,-65.25586 -51.44665,0 c -49.9354,0 -51.5124,-0.12268 -53.6817,-4.17608 -1.7386,-3.24852 -1.5196,-5.26785 0.9856,-9.09138 l 3.2206,-4.91528 50.4611,0 50.46105,0 0,-54.403935 c 0,-46.76438 0.44581,-54.84974 3.17477,-57.5786995 4.16238,-4.16238 7.56424,-4.01077 11.6644,0.5198495 2.93531,3.24349 3.34358,10.27414 3.34358,57.5787 l 0,53.884085 52.0784,0 c 43.86522,0 52.78652,0.49599 56.56853,3.14502 4.94016,3.46021 5.82376,8.85538 2.06579,12.61336 -1.765,1.765 -17.15015,2.42436 -56.56855,2.42436 l -54.14417,0 0,65.25586 c 0,68.59303 -0.19603,70.10459 -9.09138,70.10459 -2.33345,0 -5.3336,-1.09097 -6.667,-2.42437 z"
       id="path3859"
       inkscape:connector-curvature="0" />
    <path
       style="fill:#ffa900;fill-opacity:1;fill-rule:nonzero;stroke:none"
       d="m -846.72076,929.43399 c -1.78554,-1.78555 -2.42437,-19.61941 -2.42437,-67.68022 l 0,-65.25586 -51.44665,0 c -49.9354,0 -51.5124,-0.12268 -53.6817,-4.17608 -1.7386,-3.24852 -1.5196,-5.26785 0.9856,-9.09138 l 3.2206,-4.91528 50.4611,0 50.46105,0 0,-54.40393 c 0,-46.76438 0.44581,-54.84974 3.17477,-57.5787 4.16238,-4.16238 7.56424,-4.01077 11.6644,0.51985 2.93531,3.24349 3.34358,10.27414 3.34358,57.5787 l 0,53.88408 52.0784,0 c 43.86522,0 52.78652,0.49599 56.56853,3.14502 4.94016,3.46021 5.82376,8.85538 2.06579,12.61336 -1.765,1.765 -17.15015,2.42436 -56.56855,2.42436 l -54.14417,0 0,65.25586 c 0,68.59303 -0.19603,70.10459 -9.09138,70.10459 -2.33345,0 -5.3336,-1.09097 -6.667,-2.42437 z"
       id="path3861"
       inkscape:connector-curvature="0" />
    <path
       style="fill:#ffcc00;fill-opacity:1;fill-rule:nonzero;stroke:none"
       d="m -930.34315,467.69769 c 14.78856,-0.34565 38.42613,-0.3447 52.52793,0.002 14.1018,0.3468 2.00207,0.6296 -26.8883,0.62845 -28.89036,-0.001 -40.4282,-0.2849 -25.63963,-0.63055 z"
       id="path3863"
       inkscape:connector-curvature="0" />
    <path
       style="fill:#ffcc00;fill-opacity:1;fill-rule:nonzero;stroke:none"
       d="m -683.07605,489.00748 c -1.78554,-1.78555 -2.42437,-19.61941 -2.42437,-67.68022 l 0,-65.25586 -51.44665,0 c -49.9354,0 -51.5124,-0.12268 -53.6817,-4.17608 -1.7386,-3.24852 -1.5196,-5.26785 0.9856,-9.09138 l 3.2206,-4.91528 50.4611,0 50.46105,0 0,-54.40393 c 0,-46.76438 0.44581,-54.84974 3.17477,-57.5787 4.16238,-4.16238 7.56424,-4.01077 11.6644,0.51985 2.93531,3.24349 3.34358,10.27414 3.34358,57.5787 l 0,53.88408 52.0784,0 c 43.86522,0 52.78652,0.49599 56.56853,3.14502 4.94016,3.46021 5.82376,8.85538 2.06579,12.61336 -1.765,1.765 -17.15015,2.42436 -56.56855,2.42436 l -54.14417,0 0,65.25586 c 0,68.59303 -0.19603,70.10459 -9.09138,70.10459 -2.33345,0 -5.3336,-1.09097 -6.667,-2.42437 z"
       id="path3865"
       inkscape:connector-curvature="0" />
    <path
       style="fill:#ffcc00;fill-opacity:1;fill-rule:nonzero;stroke:none"
       d="m -1108.4517,870.60537 c -2.6455,-2.0233 -3.3364,-12.30544 -4.5383,-67.54147 l -1.4178,-65.15484 -19.3966,-0.007 c -10.6681,-0.004 -33.8,-0.60409 -51.4042,-1.3342 -34.5013,-1.43089 -36.7265,-2.27187 -31.5591,-11.92734 l 2.6302,-4.91447 49.8636,0 49.8636,0 1.4509,-53.7327 c 0.7979,-29.55298 1.9405,-55.00882 2.539,-56.56854 1.3551,-3.53137 7.5273,-3.69747 10.3645,-0.27892 1.2784,1.54038 2.6986,23.91272 3.5724,56.27307 l 1.4504,53.71614 51.6144,1.44396 c 28.388,0.79417 53.31183,2.35235 55.3864,3.46262 2.3122,1.23745 3.52901,3.72495 3.14424,6.42767 -0.59918,4.20889 -1.86547,4.46692 -27.90174,5.68555 -15.0008,0.70211 -39.6289,1.38396 -54.7292,1.51523 l -27.455,0.23866 -1.2549,63.26743 c -0.6902,34.79709 -1.8155,64.72832 -2.5007,66.51386 -1.7202,4.48267 -5.996,5.76472 -9.7221,2.91502 z"
       id="path3867"
       inkscape:connector-curvature="0" />
    <path
       style="fill:#ffcc00;fill-opacity:1;fill-rule:nonzero;stroke:none"
       d="m -1039.6272,468.70341 c -2.9667,-2.22573 -3.53,-10.25616 -4.7472,-67.68022 l -1.381,-65.15484 -23.6039,0 c -12.9822,0 -36.1052,-0.59955 -51.3845,-1.33233 -29.9691,-1.43729 -32.3872,-2.49319 -27.3336,-11.93594 l 2.6302,-4.91447 49.8487,0 49.8488,0 1.4008,-53.56341 c 0.7704,-29.45987 1.9197,-54.91571 2.5539,-56.56854 1.4227,-3.70743 7.5441,-3.92482 10.4922,-0.3726 1.3611,1.64002 2.7135,22.85062 3.5872,56.25864 l 1.4024,53.6261 51.47379,1.39103 c 28.6148,0.77328 53.2048,2.31741 55.3716,3.47705 2.4252,1.29791 3.6607,3.7518 3.2701,6.49503 -0.5937,4.17055 -1.9387,4.47612 -24.8713,5.65028 -13.334,0.68272 -37.964,1.36457 -54.7334,1.51523 l -30.48969,0.27393 -1.2165,64.81093 c -1.3297,70.84476 -2.1585,75.49682 -12.1186,68.02413 z"
       id="path3869"
       inkscape:connector-curvature="0" />
    <path
       style="fill:#ffcc00;fill-opacity:1;fill-rule:nonzero;stroke:none"
       d="m -904.30922,369.70846 c -3.02343,-2.24011 -3.55954,-9.85009 -4.74616,-67.37057 l -1.33772,-64.8452 -50.47893,-1.20643 c -30.9567,-0.73987 -51.30007,-2.02759 -52.60217,-3.32971 -1.4244,-1.42444 -1.4793,-3.95526 -0.1667,-7.6895 l 1.9565,-5.56624 50.64407,-0.53909 50.64419,-0.53909 1.36861,-53.43662 c 0.75273,-29.39014 1.90356,-54.83068 2.55738,-56.53453 1.45983,-3.80425 7.5538,-4.04877 10.56225,-0.42381 1.4068,1.69508 2.72172,22.29047 3.5916,56.25463 l 1.37229,53.58054 51.40025,1.358 c 29.26165,0.77309 53.10886,2.27242 55.36722,3.48106 2.48728,1.33115 3.73286,3.76765 3.3393,6.53206 -0.58883,4.13623 -2.00248,4.48682 -22.85102,5.66719 -12.22285,0.69201 -36.85797,1.37386 -54.74471,1.51523 l -32.52136,0.25702 -1.13027,64.72073 c -1.23993,71.00002 -2.07207,75.63656 -12.22462,68.11433 z"
       id="path3871"
       inkscape:connector-curvature="0" />
    <path
       style="fill:#ffcc00;fill-opacity:1;fill-rule:nonzero;stroke:none"
       d="m -728.58973,692.95594 c -3.08726,-2.25747 -3.59305,-9.43723 -4.74643,-67.37678 l -1.29094,-64.85006 -50.43149,-1.15303 c -31.7257,-0.72536 -51.2365,-1.95809 -52.6019,-3.3235 -1.4704,-1.47048 -1.5394,-3.96562 -0.2139,-7.73671 l 1.9565,-5.56624 50.6416,-0.53909 50.64159,-0.53908 1.29397,-53.23548 c 0.71168,-29.27952 1.86366,-54.72006 2.55994,-56.53454 1.54069,-4.01498 7.57607,-4.31608 10.71448,-0.53452 1.50667,1.81543 2.7407,21.12775 3.59448,56.25301 l 1.30012,53.48849 51.24689,1.27909 c 30.60155,0.76379 52.90566,2.16682 55.36435,3.48268 2.62234,1.40343 3.88953,3.80458 3.48977,6.61259 -0.58294,4.09474 -2.0676,4.50007 -20.83072,5.68692 -11.11167,0.70286 -35.76439,1.38471 -54.7838,1.51523 l -34.58075,0.23729 -0.92634,64.52211 c -0.70037,48.78307 -1.56568,65.29246 -3.54734,67.68021 -3.16829,3.81755 -4.37502,3.90366 -8.85008,0.63141 l 0,0 z"
       id="path3873"
       inkscape:connector-curvature="0" />
    <path
       style="fill:#ffcc00;fill-opacity:1;fill-rule:nonzero;stroke:none"
       d="m -977.57099,545.98008 c 0,-27.22361 0.28598,-38.36054 0.63551,-24.74873 0.34952,13.6118 0.34952,35.88566 0,49.49747 -0.34953,13.61181 -0.63551,2.47487 -0.63551,-24.74874 z"
       id="path3875"
       inkscape:connector-curvature="0" />
    <path
       style="fill:#ffcc00;fill-opacity:1;fill-rule:nonzero;stroke:none"
       d=""
       id="path3879"
       inkscape:connector-curvature="0" />
    <path
       style="fill:#ffcc00;fill-opacity:1;fill-rule:nonzero;stroke:none"
       d=""
       id="path3881"
       inkscape:connector-curvature="0" />
    <path
       inkscape:connector-curvature="0"
       id="path3883"
       d="m -423.52366,626.28588 c -3.08726,-2.25747 -3.59305,-9.43723 -4.74643,-67.37678 l -1.29094,-64.85006 -50.43149,-1.15303 c -31.7257,-0.72536 -51.2365,-1.95809 -52.6019,-3.3235 -1.4704,-1.47048 -1.5394,-3.96562 -0.2139,-7.73671 l 1.9565,-5.56624 50.6416,-0.53909 50.64159,-0.53908 1.29397,-53.23548 c 0.71168,-29.27952 1.86366,-54.72006 2.55994,-56.53454 1.54069,-4.01498 7.57607,-4.31608 10.71448,-0.53452 1.50667,1.81543 2.7407,21.12775 3.59448,56.25301 l 1.30012,53.48849 51.24689,1.27909 c 30.60155,0.76379 52.90566,2.16682 55.36435,3.48268 2.62234,1.40343 3.88953,3.80458 3.48977,6.61259 -0.58294,4.09474 -2.0676,4.50007 -20.83072,5.68692 -11.11167,0.70286 -35.76439,1.38471 -54.7838,1.51523 l -34.58075,0.23729 -0.92634,64.52211 c -0.70037,48.78307 -1.56568,65.29246 -3.54734,67.68021 -3.16829,3.81755 -4.37502,3.90366 -8.85008,0.63141 l 0,0 z"
       style="fill:#ffcc00;fill-opacity:1;fill-rule:nonzero;stroke:none" />
    <g
       transform="matrix(0.39163645,0,0,0.31522287,884.343,274.25241)"
       style="fill:#ffaa00;fill-opacity:1"
       id="g3885"
       inkscape:export-filename="C:\Users\Flor.Lappy\Desktop\testMainList\app\src\main\res\drawable\addbuttyell.png"
       inkscape:export-xdpi="90"
       inkscape:export-ydpi="90">
      <rect
         style="fill:#ffaa00;fill-opacity:1;fill-rule:nonzero;stroke:none"
         id="rect3887"
         width="20"
         height="271.42856"
         x="-1302.8572"
         y="52.362183"
         ry="10" />
      <rect
         style="fill:#ffaa00;fill-opacity:1;fill-rule:nonzero;stroke:none"
         id="rect3889"
         width="20"
         height="239.10368"
         x="168.07648"
         y="1169.8564"
         ry="8.8090839"
         transform="matrix(0,1,-1,0,0,0)" />
    </g>
    <path
       transform="matrix(1.1141869,0,0,1.3031481,162.43879,-28.290007)"
       d="m 424.26408,86.656349 a 68.690376,56.568542 0 1 1 -137.38076,0 68.690376,56.568542 0 1 1 137.38076,0 z"
       sodipodi:ry="56.568542"
       sodipodi:rx="68.690376"
       sodipodi:cy="86.656349"
       sodipodi:cx="355.5737"
       id="path4630"
       style="fill:#3b62fb;fill-opacity:1;fill-rule:nonzero;stroke:none;filter:url(#filter4704)"
       sodipodi:type="arc"
       inkscape:export-filename="C:\Users\Flor.Lappy\Desktop\testMainList\app\src\main\res\drawable\helpbutton.png"
       inkscape:export-xdpi="90"
       inkscape:export-ydpi="90" />
    <rect
       inkscape:export-ydpi="90"
       inkscape:export-xdpi="90"
       inkscape:export-filename="C:\Users\Flor.Lappy\Desktop\testMainList\app\src\main\res\drawable\addbuttyell.png"
       ry="37.142857"
       y="235.21933"
       x="128.57143"
       height="191.42857"
       width="500"
       id="rect3891"
       style="fill:#ffffff;fill-opacity:0;fill-rule:nonzero;stroke:url(#linearGradient3937);stroke-width:18.57661057;stroke-miterlimit:4;stroke-dasharray:none;filter:url(#filter3991)"
       transform="matrix(0.99931446,0,0,1.1599116,-1.7607768,-46.859214)" />
    <path
       inkscape:export-ydpi="90"
       inkscape:export-xdpi="90"
       inkscape:export-filename="C:\Users\Flor.Lappy\Desktop\testMainList\app\src\main\res\drawable\addbuttyell.png"
       transform="matrix(1.0475922,0,0,1.2339205,-19.377613,-75.649426)"
       d="m 459.99999,329.50504 a 82.85714,65.714287 0 1 1 -165.71428,0 82.85714,65.714287 0 1 1 165.71428,0 z"
       sodipodi:ry="65.714287"
       sodipodi:rx="82.85714"
       sodipodi:cy="329.50504"
       sodipodi:cx="377.14285"
       id="path3913"
       style="fill:#ffffff;fill-opacity:0;fill-rule:nonzero;stroke:url(#linearGradient3767);stroke-width:17.59098983999999900;stroke-miterlimit:4;stroke-dasharray:none;filter:url(#filter3979)"
       sodipodi:type="arc" />
    <g
       inkscape:export-ydpi="90"
       inkscape:export-xdpi="90"
       inkscape:export-filename="C:\Users\Flor.Lappy\Desktop\testMainList\app\src\main\res\drawable\addbuttyell.png"
       id="g3919"
       style="fill:#ffaa00;fill-opacity:1;stroke-width:56.92192563999999800;stroke-miterlimit:4;stroke-dasharray:none;filter:url(#filter4203)"
       transform="matrix(0.39163645,0,0,0.31522287,884.343,274.25241)">
      <rect
         ry="10"
         y="52.362183"
         x="-1302.8572"
         height="271.42856"
         width="20"
         id="rect3921"
         style="fill:#ffaa00;fill-opacity:1;fill-rule:nonzero;stroke:none;stroke-width:56.92192564;stroke-miterlimit:4;stroke-dasharray:none" />
      <rect
         transform="matrix(0,1,-1,0,0,0)"
         ry="8.8090839"
         y="1169.8564"
         x="168.07648"
         height="239.10368"
         width="20"
         id="rect3923"
         style="fill:#ffaa00;fill-opacity:1;fill-rule:nonzero;stroke:none;stroke-width:56.92192564;stroke-miterlimit:4;stroke-dasharray:none" />
    </g>
    <rect
       style="fill:url(#linearGradient4221);fill-opacity:1;fill-rule:nonzero;stroke:none"
       id="rect4209"
       width="15.39391"
       height="263.20627"
       x="-490.10901"
       y="247.59738"
       rx="7.6969552"
       transform="matrix(0.29748161,-0.95472755,0.86328067,0.50472416,0,0)"
       ry="9.009675"
       inkscape:export-filename="C:\Users\Flor.Lappy\Desktop\testMainList\app\src\main\res\drawable\selectbutton.png"
       inkscape:export-xdpi="90"
       inkscape:export-ydpi="90" />
    <rect
       ry="9.009675"
       transform="matrix(0.29748161,0.95472755,0.86328067,-0.50472416,0,0)"
       rx="7.6969552"
       y="-189.37115"
       x="777.95758"
       height="263.20627"
       width="15.39391"
       id="rect4223"
       style="fill:url(#linearGradient4225);fill-opacity:1;fill-rule:nonzero;stroke:none"
       inkscape:export-filename="C:\Users\Flor.Lappy\Desktop\testMainList\app\src\main\res\drawable\selectbutton.png"
       inkscape:export-xdpi="90"
       inkscape:export-ydpi="90" />
    <rect
       ry="9.009675"
       transform="matrix(0.29748161,-0.95472755,0.86328067,0.50472416,0,0)"
       rx="7.6969552"
       y="247.59738"
       x="-490.10901"
       height="263.20627"
       width="15.39391"
       id="rect4227"
       style="fill:url(#linearGradient4315);fill-opacity:1;fill-rule:nonzero;stroke:none;filter:url(#filter4301)"
       inkscape:export-filename="C:\Users\Flor.Lappy\Desktop\testMainList\app\src\main\res\drawable\selectbutton.png"
       inkscape:export-xdpi="90"
       inkscape:export-ydpi="90" />
    <rect
       style="fill:url(#linearGradient4225);fill-opacity:1;fill-rule:nonzero;stroke:none;filter:url(#filter4311)"
       id="rect4305"
       width="15.39391"
       height="263.20627"
       x="777.95758"
       y="-189.37115"
       rx="7.6969552"
       transform="matrix(0.29748161,0.95472755,0.86328067,-0.50472416,0,0)"
       ry="9.009675"
       inkscape:export-filename="C:\Users\Flor.Lappy\Desktop\testMainList\app\src\main\res\drawable\selectbutton.png"
       inkscape:export-xdpi="90"
       inkscape:export-ydpi="90" />
    <path
       inkscape:export-ydpi="90"
       inkscape:export-xdpi="90"
       inkscape:export-filename="C:\Users\Flor.Lappy\Desktop\testMainList\app\src\main\res\drawable\selectbutton.png"
       transform="matrix(1.0475922,0,0,1.2339205,69.57826,288.18516)"
       d="m 459.99999,329.50504 a 82.85714,65.714287 0 1 1 -165.71428,0 82.85714,65.714287 0 1 1 165.71428,0 z"
       sodipodi:ry="65.714287"
       sodipodi:rx="82.85714"
       sodipodi:cy="329.50504"
       sodipodi:cx="377.14285"
       id="path3913-4"
       style="fill:#ffffff;fill-opacity:0;fill-rule:nonzero;stroke:url(#linearGradient4333);stroke-width:17.59099007;stroke-miterlimit:4;stroke-dasharray:none;filter:url(#filter3979-9)"
       sodipodi:type="arc" />
    <path
       inkscape:export-ydpi="90"
       inkscape:export-xdpi="90"
       inkscape:export-filename="C:\Users\Flor.Lappy\Desktop\testMainList\app\src\main\res\drawable\selectbuttonhigh.png"
       transform="matrix(1.0475922,0,0,1.2339205,69.57826,292.22578)"
       d="m 459.99999,329.50504 a 82.85714,65.714287 0 1 1 -165.71428,0 82.85714,65.714287 0 1 1 165.71428,0 z"
       sodipodi:ry="65.714287"
       sodipodi:rx="82.85714"
       sodipodi:cy="329.50504"
       sodipodi:cx="377.14285"
       id="path3913-8"
       style="fill:#ffffff;fill-opacity:0;fill-rule:nonzero;stroke:url(#linearGradient4370);stroke-width:4.39774752;stroke-miterlimit:4;stroke-dasharray:none"
       sodipodi:type="arc" />
    <rect
       style="fill:#ffaa23;fill-opacity:1;fill-rule:nonzero;stroke:none"
       id="rect4391"
       width="46.46701"
       height="20.203146"
       x="412.14227"
       y="664.46362"
       ry="10.101476"
       rx="0"
       inkscape:export-filename="C:\Users\Flor.Lappy\Desktop\testMainList\app\src\main\res\drawable\selectbuttonhigh.png"
       inkscape:export-xdpi="90"
       inkscape:export-ydpi="90" />
    <rect
       style="fill:#ffaa23;fill-opacity:1;fill-rule:nonzero;stroke:none"
       id="rect4391-3"
       width="46.46701"
       height="20.203146"
       x="469.72092"
       y="664.46356"
       ry="10.101476"
       rx="0"
       inkscape:export-filename="C:\Users\Flor.Lappy\Desktop\testMainList\app\src\main\res\drawable\selectbuttonhigh.png"
       inkscape:export-xdpi="90"
       inkscape:export-ydpi="90" />
    <rect
       style="fill:#ffaa23;fill-opacity:1;fill-rule:nonzero;stroke:none"
       id="rect4391-6"
       width="46.46701"
       height="20.203146"
       x="441.43668"
       y="690.72754"
       ry="10.101476"
       rx="0"
       inkscape:export-filename="C:\Users\Flor.Lappy\Desktop\testMainList\app\src\main\res\drawable\selectbuttonhigh.png"
       inkscape:export-xdpi="90"
       inkscape:export-ydpi="90" />
    <rect
       style="fill:#ffaa23;fill-opacity:1;fill-rule:nonzero;stroke:none"
       id="rect4391-68"
       width="46.46701"
       height="20.203146"
       x="413.1524"
       y="714.97119"
       ry="10.101476"
       rx="0"
       inkscape:export-filename="C:\Users\Flor.Lappy\Desktop\testMainList\app\src\main\res\drawable\selectbuttonhigh.png"
       inkscape:export-xdpi="90"
       inkscape:export-ydpi="90" />
    <rect
       style="fill:#ffaa23;fill-opacity:1;fill-rule:nonzero;stroke:none"
       id="rect4391-61"
       width="46.46701"
       height="20.203146"
       x="469.72092"
       y="714.97119"
       ry="10.101476"
       rx="0"
       inkscape:export-filename="C:\Users\Flor.Lappy\Desktop\testMainList\app\src\main\res\drawable\selectbuttonhigh.png"
       inkscape:export-xdpi="90"
       inkscape:export-ydpi="90" />
    <rect
       rx="0"
       ry="10.101476"
       y="664.46362"
       x="412.14227"
       height="20.203146"
       width="46.46701"
       id="rect4510"
       style="fill:#ffaa23;fill-opacity:1;fill-rule:nonzero;stroke:none;filter:url(#filter4600)"
       inkscape:export-filename="C:\Users\Flor.Lappy\Desktop\testMainList\app\src\main\res\drawable\selectbuttonhigh.png"
       inkscape:export-xdpi="90"
       inkscape:export-ydpi="90" />
    <rect
       rx="0"
       ry="10.101476"
       y="664.46356"
       x="469.72092"
       height="20.203146"
       width="46.46701"
       id="rect4512"
       style="fill:#ffaa23;fill-opacity:1;fill-rule:nonzero;stroke:none;filter:url(#filter4604)"
       inkscape:export-filename="C:\Users\Flor.Lappy\Desktop\testMainList\app\src\main\res\drawable\selectbuttonhigh.png"
       inkscape:export-xdpi="90"
       inkscape:export-ydpi="90" />
    <rect
       rx="0"
       ry="10.101476"
       y="690.72754"
       x="441.43668"
       height="20.203146"
       width="46.46701"
       id="rect4514"
       style="fill:#ffaa23;fill-opacity:1;fill-rule:nonzero;stroke:none;filter:url(#filter4608)"
       inkscape:export-filename="C:\Users\Flor.Lappy\Desktop\testMainList\app\src\main\res\drawable\selectbuttonhigh.png"
       inkscape:export-xdpi="90"
       inkscape:export-ydpi="90" />
    <rect
       rx="0"
       ry="10.101476"
       y="714.97119"
       x="413.1524"
       height="20.203146"
       width="46.46701"
       id="rect4516"
       style="fill:#ffaa23;fill-opacity:1;fill-rule:nonzero;stroke:none;filter:url(#filter4612)"
       inkscape:export-filename="C:\Users\Flor.Lappy\Desktop\testMainList\app\src\main\res\drawable\selectbuttonhigh.png"
       inkscape:export-xdpi="90"
       inkscape:export-ydpi="90" />
    <rect
       rx="0"
       ry="10.101476"
       y="714.97119"
       x="469.72092"
       height="20.203146"
       width="46.46701"
       id="rect4518"
       style="fill:#ffaa23;fill-opacity:1;fill-rule:nonzero;stroke:none;filter:url(#filter4616)"
       inkscape:export-filename="C:\Users\Flor.Lappy\Desktop\testMainList\app\src\main\res\drawable\selectbuttonhigh.png"
       inkscape:export-xdpi="90"
       inkscape:export-ydpi="90" />
    <path
       sodipodi:type="arc"
       style="fill:#3b6efa;fill-opacity:1;fill-rule:nonzero;stroke:none"
       id="path4628"
       sodipodi:cx="355.5737"
       sodipodi:cy="86.656349"
       sodipodi:rx="68.690376"
       sodipodi:ry="56.568542"
       d="m 424.26408,86.656349 a 68.690376,56.568542 0 1 1 -137.38076,0 68.690376,56.568542 0 1 1 137.38076,0 z"
       transform="matrix(1,0,0,1.1964286,208.09142,-20.052241)"
       inkscape:export-filename="C:\Users\Flor.Lappy\Desktop\testMainList\app\src\main\res\drawable\helpbutton.png"
       inkscape:export-xdpi="90"
       inkscape:export-ydpi="90" />
    <flowRoot
       xml:space="preserve"
       id="flowRoot4620"
       style="font-size:40px;font-style:normal;font-variant:normal;font-weight:normal;font-stretch:normal;line-height:125%;letter-spacing:0px;word-spacing:0px;fill:#ffffff;fill-opacity:1;stroke:none;font-family:Verdana;-inkscape-font-specification:Verdana"
       transform="matrix(2.95862,0,0,2.0895549,298.18604,-12.905592)"
       inkscape:transform-center-x="-24.414394"
       inkscape:export-filename="C:\Users\Flor.Lappy\Desktop\testMainList\app\src\main\res\drawable\helpbutton.png"
       inkscape:export-xdpi="90"
       inkscape:export-ydpi="90"><flowRegion
         id="flowRegion4622"><rect
           id="rect4624"
           width="165.66502"
           height="62.629459"
           x="78.791901"
           y="28.067503"
           style="font-style:normal;font-variant:normal;font-weight:normal;font-stretch:normal;fill:#ffffff;fill-opacity:1;font-family:Verdana;-inkscape-font-specification:Verdana" /></flowRegion><flowPara
         id="flowPara4626">?</flowPara></flowRoot>  </g>
</svg>
