<?xml version="1.0" encoding="UTF-8" standalone="no"?>
<!-- Created with Inkscape (http://www.inkscape.org/) -->

<svg
   xmlns:osb="http://www.openswatchbook.org/uri/2009/osb"
   xmlns:dc="http://purl.org/dc/elements/1.1/"
   xmlns:cc="http://creativecommons.org/ns#"
   xmlns:rdf="http://www.w3.org/1999/02/22-rdf-syntax-ns#"
   xmlns:svg="http://www.w3.org/2000/svg"
   xmlns="http://www.w3.org/2000/svg"
   xmlns:xlink="http://www.w3.org/1999/xlink"
   xmlns:sodipodi="http://sodipodi.sourceforge.net/DTD/sodipodi-0.dtd"
   xmlns:inkscape="http://www.inkscape.org/namespaces/inkscape"
   width="744.09448819"
   height="1052.3622047"
   id="svg2"
   version="1.1"
   inkscape:version="0.48.4 r9939"
   sodipodi:docname="futurebutton.svg"
   inkscape:export-filename="C:\Users\Flor.Lappy\Desktop\testMainList\app\src\main\res\drawable\calculate.png"
   inkscape:export-xdpi="57.262951"
   inkscape:export-ydpi="57.262951">
  <defs
     id="defs4">
    <inkscape:path-effect
       effect="gears"
       id="path-effect3943"
       is_visible="true"
       teeth="10"
       phi="5" />
    <inkscape:path-effect
       effect="gears"
       id="path-effect3939"
       is_visible="true"
       teeth="10"
       phi="5" />
    <inkscape:path-effect
       effect="gears"
       id="path-effect3934"
       is_visible="true"
       teeth="10"
       phi="5" />
    <inkscape:path-effect
       effect="gears"
       id="path-effect3930"
       is_visible="true"
       teeth="10"
       phi="5" />
    <inkscape:path-effect
       effect="gears"
       id="path-effect3926"
       is_visible="true"
       teeth="10"
       phi="5" />
    <inkscape:path-effect
       effect="gears"
       id="path-effect3922"
       is_visible="true"
       teeth="10"
       phi="5" />
    <inkscape:path-effect
       effect="gears"
       id="path-effect3917"
       is_visible="true"
       teeth="10"
       phi="5" />
    <inkscape:path-effect
       effect="gears"
       id="path-effect3913"
       is_visible="true"
       teeth="10"
       phi="5" />
    <inkscape:path-effect
       effect="rough_hatches"
       id="path-effect3903"
       is_visible="true"
       direction="408.60669,-27.945202 , 22.475895,0"
       dist_rdm="75;1"
       growth="0"
       do_bend="true"
       bender="408.60669,-22.945202 , 5,0"
       bottom_edge_variation="2.1213203;1"
       top_edge_variation="2.1213203;1"
       bottom_tgt_variation="0;1"
       top_tgt_variation="0;1"
       scale_bf="1"
       scale_bb="1"
       scale_tf="1"
       scale_tb="1"
       top_smth_variation="0;1"
       bottom_smth_variation="0;1"
       fat_output="true"
       stroke_width_top="1"
       stroke_width_bottom="1"
       front_thickness="1"
       back_thickness="0.25" />
    <linearGradient
       id="linearGradient3788"
       osb:paint="solid">
      <stop
         style="stop-color:#c0c0c0;stop-opacity:1;"
         offset="0"
         id="stop3790" />
    </linearGradient>
    <linearGradient
       inkscape:collect="always"
       xlink:href="#linearGradient3788"
       id="linearGradient3792"
       x1="193.94928"
       y1="116.23894"
       x2="375.77673"
       y2="116.23894"
       gradientUnits="userSpaceOnUse" />
    <linearGradient
       inkscape:collect="always"
       xlink:href="#linearGradient3788"
       id="linearGradient3891"
       gradientUnits="userSpaceOnUse"
       x1="193.94928"
       y1="116.23894"
       x2="375.77673"
       y2="116.23894" />
    <linearGradient
       inkscape:collect="always"
       xlink:href="#linearGradient3788"
       id="linearGradient4464"
       gradientUnits="userSpaceOnUse"
       x1="193.94928"
       y1="116.23894"
       x2="375.77673"
       y2="116.23894" />
    <linearGradient
       inkscape:collect="always"
       xlink:href="#linearGradient3788"
       id="linearGradient4466"
       gradientUnits="userSpaceOnUse"
       x1="193.94928"
       y1="116.23894"
       x2="375.77673"
       y2="116.23894" />
    <linearGradient
       inkscape:collect="always"
       xlink:href="#linearGradient3788"
       id="linearGradient4468"
       gradientUnits="userSpaceOnUse"
       x1="193.94928"
       y1="116.23894"
       x2="375.77673"
       y2="116.23894" />
    <filter
       inkscape:collect="always"
       id="filter4490"
       x="-0.12255712"
       width="1.2451142"
       y="-0.26235846"
       height="1.5247169">
      <feGaussianBlur
         inkscape:collect="always"
         stdDeviation="21.974746"
         id="feGaussianBlur4492" />
    </filter>
  </defs>
  <sodipodi:namedview
     id="base"
     pagecolor="#ffffff"
     bordercolor="#666666"
     borderopacity="1.0"
     inkscape:pageopacity="0.0"
     inkscape:pageshadow="2"
     inkscape:zoom="0.98994949"
     inkscape:cx="111.52451"
     inkscape:cy="911.37663"
     inkscape:document-units="px"
     inkscape:current-layer="layer1"
     showgrid="false"
     inkscape:window-width="1366"
     inkscape:window-height="706"
     inkscape:window-x="-8"
     inkscape:window-y="-8"
     inkscape:window-maximized="1" />
  <metadata
     id="metadata7">
    <rdf:RDF>
      <cc:Work
         rdf:about="">
        <dc:format>image/svg+xml</dc:format>
        <dc:type
           rdf:resource="http://purl.org/dc/dcmitype/StillImage" />
        <dc:title></dc:title>
      </cc:Work>
    </rdf:RDF>
  </metadata>
  <g
     inkscape:label="Layer 1"
     inkscape:groupmode="layer"
     id="layer1">
    <path
       sodipodi:type="arc"
       style="fill:#9c9c9c;fill-opacity:1;fill-rule:nonzero;stroke:none;filter:url(#filter4490)"
       id="path3902"
       sodipodi:cx="287.89346"
       sodipodi:cy="116.45585"
       sodipodi:rx="215.16249"
       sodipodi:ry="100.51018"
       d="m 503.05595,116.45585 a 215.16249,100.51018 0 1 1 -430.324978,0 215.16249,100.51018 0 1 1 430.324978,0 z"
       inkscape:export-filename="C:\Users\Flor.Lappy\Desktop\testMainList\app\src\main\res\drawable\selfinishbutton.png"
       inkscape:export-xdpi="90"
       inkscape:export-ydpi="90"
       transform="matrix(0.76069878,0,0,0.61331849,70.875192,32.909496)" />
    <rect
       rx="55.057549"
       ry="53.163437"
       y="391.47607"
       x="26.060915"
       height="285.71429"
       width="611.42853"
       id="rect3006"
       style="fill:#00112b;fill-opacity:1;fill-rule:nonzero;stroke:none"
       inkscape:export-filename="C:\Users\Flor.Lappy\Desktop\testMainList\app\src\main\res\drawable\solidbutton.png"
       inkscape:export-xdpi="90"
       inkscape:export-ydpi="90" />
    <rect
       style="fill:#002255;fill-opacity:1;fill-rule:nonzero;stroke:none"
       id="rect2993"
       width="602.85712"
       height="274.28574"
       x="34.632343"
       y="391.47607"
       ry="51.0369"
       rx="54.285713"
       inkscape:export-filename="C:\Users\Flor.Lappy\Desktop\testMainList\app\src\main\res\drawable\solidbutton.png"
       inkscape:export-xdpi="90"
       inkscape:export-ydpi="90" />
    <flowRoot
       transform="matrix(2.7938756,0,0,3.9063643,-329.80494,-743.61356)"
       style="font-size:40px;font-style:normal;font-variant:normal;font-weight:normal;font-stretch:normal;line-height:125%;letter-spacing:0px;word-spacing:0px;fill:#00aa88;fill-opacity:1;stroke:none;font-family:Banana Brick;-inkscape-font-specification:Banana Brick"
       id="flowRoot3008"
       xml:space="preserve"
       inkscape:export-filename="C:\Users\Flor.Lappy\Desktop\testMainList\app\src\main\res\drawable\solidbutton.png"
       inkscape:export-xdpi="90"
       inkscape:export-ydpi="90"><flowRegion
         id="flowRegion3010"><rect
           style="font-style:normal;font-variant:normal;font-weight:normal;font-stretch:normal;fill:#00aa88;font-family:Banana Brick;-inkscape-font-specification:Banana Brick"
           y="300.93362"
           x="182.85715"
           height="131.42857"
           width="414.28571"
           id="rect3012" /></flowRegion><flowPara
         id="flowPara3014">Lift+</flowPara></flowRoot>    <flowRoot
       xml:space="preserve"
       id="flowRoot2985"
       style="font-size:40px;font-style:normal;font-variant:normal;font-weight:normal;font-stretch:normal;line-height:125%;letter-spacing:0px;word-spacing:0px;fill:#d5fff6;fill-opacity:1;stroke:none;font-family:Banana Brick;-inkscape-font-specification:Banana Brick"
       transform="matrix(2.7403271,0,0,3.4592313,-314.23538,-603.41373)"
       inkscape:export-filename="C:\Users\Flor.Lappy\Desktop\testMainList\app\src\main\res\drawable\solidbutton.png"
       inkscape:export-xdpi="90"
       inkscape:export-ydpi="90"><flowRegion
         id="flowRegion2987"><rect
           id="rect2989"
           width="414.28571"
           height="131.42857"
           x="182.85715"
           y="300.93362"
           style="font-style:normal;font-variant:normal;font-weight:normal;font-stretch:normal;fill:#d5fff6;font-family:Banana Brick;-inkscape-font-specification:Banana Brick" /></flowRegion><flowPara
         id="flowPara2991">Lift+</flowPara></flowRoot>    <path
       sodipodi:type="arc"
       style="fill:none;stroke:url(#linearGradient3891);stroke-width:10;stroke-linecap:butt;stroke-miterlimit:4;stroke-dasharray:none"
       id="path3016"
       sodipodi:cx="284.86301"
       sodipodi:cy="113.42539"
       sodipodi:rx="90.913727"
       sodipodi:ry="83.337585"
       d="M 201.13581,80.950774 A 90.913727,83.337585 0 0 1 273.76629,30.710921"
       sodipodi:start="3.5418719"
       sodipodi:end="4.5900262"
       inkscape:export-filename="C:\Users\Flor.Lappy\Desktop\testMainList\app\src\main\res\drawable\selfinishbutton.png"
       inkscape:export-xdpi="90"
       inkscape:export-ydpi="90"
       transform="matrix(1.0192635,0,0,1.0820115,-1.4657575,-23.74229)"
       sodipodi:open="true" />
    <path
       style="fill:none;stroke:#5d5d5d;stroke-width:5.25084496;stroke-linecap:butt;stroke-linejoin:miter;stroke-miterlimit:4;stroke-opacity:1;stroke-dasharray:none"
       d="M 83.992006,75.485861 206.5158,76.578857 z"
       id="path3796"
       inkscape:connector-curvature="0"
       inkscape:export-filename="C:\Users\Flor.Lappy\Desktop\testMainList\app\src\main\res\drawable\selfinishbutton.png"
       inkscape:export-xdpi="90"
       inkscape:export-ydpi="90" />
    <path
       inkscape:connector-curvature="0"
       id="path3834"
       d="m 85.021618,130.13569 122.523782,1.093 z"
       style="fill:none;stroke:#5d5d5d;stroke-width:5.25084496;stroke-linecap:butt;stroke-linejoin:miter;stroke-miterlimit:4;stroke-opacity:1;stroke-dasharray:none"
       inkscape:export-filename="C:\Users\Flor.Lappy\Desktop\testMainList\app\src\main\res\drawable\selfinishbutton.png"
       inkscape:export-xdpi="90"
       inkscape:export-ydpi="90" />
    <path
       inkscape:connector-curvature="0"
       id="path3849"
       d="m 372.28326,76.578857 122.52379,1.092996 z"
       style="fill:none;stroke:#5d5d5d;stroke-width:5.25084496;stroke-linecap:butt;stroke-linejoin:miter;stroke-miterlimit:4;stroke-opacity:1;stroke-dasharray:none"
       inkscape:export-filename="C:\Users\Flor.Lappy\Desktop\testMainList\app\src\main\res\drawable\selfinishbutton.png"
       inkscape:export-xdpi="90"
       inkscape:export-ydpi="90" />
    <path
       style="fill:none;stroke:#5d5d5d;stroke-width:5.25084496;stroke-linecap:butt;stroke-linejoin:miter;stroke-miterlimit:4;stroke-opacity:1;stroke-dasharray:none"
       d="m 373.31286,126.8567 122.52379,1.09301 z"
       id="path3851"
       inkscape:connector-curvature="0"
       inkscape:export-filename="C:\Users\Flor.Lappy\Desktop\testMainList\app\src\main\res\drawable\selfinishbutton.png"
       inkscape:export-xdpi="90"
       inkscape:export-ydpi="90" />
    <path
       style="fill:#ff9955;stroke:#ffe326;stroke-width:1.02488017px;stroke-linecap:butt;stroke-linejoin:miter;stroke-opacity:1"
       d="M 641.47916,22.862059 640.42501,80.81693 z"
       id="path3853"
       inkscape:connector-curvature="0"
       inkscape:export-filename="C:\Users\Flor.Lappy\Desktop\testMainList\app\src\main\res\drawable\selhighbuttonpng.png"
       inkscape:export-xdpi="57.262951"
       inkscape:export-ydpi="57.262951" />
    <path
       style="fill:#ff9955;stroke:#ffe24e;stroke-width:1.05016899px;stroke-linecap:butt;stroke-linejoin:miter;stroke-opacity:1"
       d="M 611.60814,48.014008 667.20717,49.107 z"
       id="path3855"
       inkscape:connector-curvature="0"
       inkscape:export-filename="C:\Users\Flor.Lappy\Desktop\testMainList\app\src\main\res\drawable\selhighbuttonpng.png"
       inkscape:export-xdpi="57.262951"
       inkscape:export-ydpi="57.262951" />
    <path
       transform="matrix(1.0192635,0,0,1.0820115,-1.4657575,-23.74229)"
       inkscape:export-ydpi="90"
       inkscape:export-xdpi="90"
       inkscape:export-filename="C:\Users\Flor.Lappy\Desktop\testMainList\app\src\main\res\drawable\selfinishbutton.png"
       sodipodi:end="5.8347348"
       sodipodi:start="4.8402756"
       d="m 296.45799,30.768371 a 90.913727,83.337585 0 0 1 70.32919,46.524363"
       sodipodi:ry="83.337585"
       sodipodi:rx="90.913727"
       sodipodi:cy="113.42539"
       sodipodi:cx="284.86301"
       id="path3893"
       style="fill:none;stroke:url(#linearGradient4468);stroke-width:10;stroke-miterlimit:4;stroke-dasharray:none"
       sodipodi:type="arc"
       sodipodi:open="true" />
    <path
       transform="matrix(1.0192635,0,0,1.0820115,-1.4657575,-23.74229)"
       inkscape:export-ydpi="90"
       inkscape:export-xdpi="90"
       inkscape:export-filename="C:\Users\Flor.Lappy\Desktop\testMainList\app\src\main\res\drawable\selfinishbutton.png"
       sodipodi:end="2.6121409"
       sodipodi:start="1.6395861"
       d="M 278.614,196.56588 A 90.913727,83.337585 0 0 1 206.39681,155.51589"
       sodipodi:ry="83.337585"
       sodipodi:rx="90.913727"
       sodipodi:cy="113.42539"
       sodipodi:cx="284.86301"
       id="path3895"
       style="fill:none;stroke:url(#linearGradient4466);stroke-width:10;stroke-miterlimit:4;stroke-dasharray:none"
       sodipodi:type="arc"
       sodipodi:open="true" />
    <path
       sodipodi:type="arc"
       style="fill:none;stroke:url(#linearGradient4464);stroke-width:10;stroke-miterlimit:4;stroke-dasharray:none"
       id="path3897"
       sodipodi:cx="284.86301"
       sodipodi:cy="113.42539"
       sodipodi:rx="90.913727"
       sodipodi:ry="83.337585"
       d="m 362.75362,156.40483 a 90.913727,83.337585 0 0 1 -68.61637,39.92339"
       sodipodi:start="0.54185586"
       sodipodi:end="1.4686071"
       inkscape:export-filename="C:\Users\Flor.Lappy\Desktop\testMainList\app\src\main\res\drawable\selfinishbutton.png"
       inkscape:export-xdpi="90"
       inkscape:export-ydpi="90"
       transform="matrix(1.0192635,0,0,1.0820115,-1.4657575,-23.74229)"
       sodipodi:open="true" />
    <path
       sodipodi:type="arc"
       style="fill:none;stroke:#848484;stroke-width:6.84200001;stroke-linecap:butt;stroke-linejoin:miter;stroke-miterlimit:4;stroke-opacity:1;stroke-dasharray:none;stroke-dashoffset:0"
       id="path3899"
       sodipodi:cx="292.43915"
       sodipodi:cy="95.242645"
       sodipodi:rx="56.063465"
       sodipodi:ry="38.890873"
       d="m 348.50261,95.242645 a 56.063465,38.890873 0 1 1 -112.12693,0 56.063465,38.890873 0 1 1 112.12693,0 z"
       transform="matrix(1.2359286,0,0,1.6384086,-71.004803,-57.06108)"
       inkscape:export-filename="C:\Users\Flor.Lappy\Desktop\testMainList\app\src\main\res\drawable\selfinishbutton.png"
       inkscape:export-xdpi="90"
       inkscape:export-ydpi="90" />
    <path
       sodipodi:type="arc"
       style="fill:#818181;fill-opacity:1;fill-rule:nonzero;stroke:#9d9d9d;stroke-width:6.84200001;stroke-linecap:butt;stroke-linejoin:miter;stroke-miterlimit:4;stroke-opacity:1;stroke-dasharray:none;stroke-dashoffset:0"
       id="path3941"
       sodipodi:cx="51.51778"
       sodipodi:cy="-148.20412"
       sodipodi:rx="5.0582497e-007"
       sodipodi:ry="40.911179"
       d="m 51.51778,-148.20411 a 5.0582497e-7,40.911179 0 0 1 10e-7,-25.0311 l -10e-7,25.03109 z"
       inkscape:path-effect="#path-effect3943"
       sodipodi:start="3.1415926"
       sodipodi:end="5.6248007"
       transform="matrix(0.50872581,0.80119039,-0.81752305,0.51909644,509.39018,182.06527)"
       inkscape:export-filename="C:\Users\Flor.Lappy\Desktop\testMainList\app\src\main\res\drawable\calculateselect.png"
       inkscape:export-xdpi="90"
       inkscape:export-ydpi="90" />
    <path
       style="fill:#0afbe4;stroke:none;stroke-width:1px;stroke-linecap:butt;stroke-linejoin:miter;stroke-opacity:1;fill-opacity:1"
       d="m 273.75134,88.676655 0,24.243655 17.1726,-1.01015 0,10.10152 26.26396,-24.243655 -26.26396,-20.20305 0,10.10152 z"
       id="path3031"
       inkscape:connector-curvature="0"
       inkscape:export-filename="C:\Users\Flor.Lappy\Desktop\testMainList\app\src\main\res\drawable\selfinishbutton.png"
       inkscape:export-xdpi="90"
       inkscape:export-ydpi="90" />
  </g>
</svg>
